[

    {
        "nome_arquivo": "generico",
        "arquivos": [
            "node_modules/jquery/dist/jquery.min.js",
            "node_modules/swiper/js/swiper.min.js",
            "build/js/functions.min.js",
            "build/js/scripts.min.js" 
        ]
    },

    {
        "nome_arquivo": "home",
        "arquivos": [
            "build/js-lib/generico-lib.min.js",
            "build/js/search-filter-build.js",
            "node_modules/swiper/swiper.min.js",  
            "build/js/home.min.js"
        ]
    },

    {
        "nome_arquivo": "404",
        "arquivos": [
            "build/js-lib/generico-lib.min.js"
        ]
    },

    { 
        "nome_arquivo": "archive",
        "arquivos": [
            "build/js-lib/generico-lib.min.js"
        ]
    },

    {
        "nome_arquivo": "attachment",
        "arquivos": [
            "build/js-lib/generico-lib.min.js"
        ]
    },

    {
        "nome_arquivo": "author",
        "arquivos": [
            "build/js-lib/generico-lib.min.js"
        ]
    },

    {
        "nome_arquivo": "blog",
        "arquivos": [
            "build/js-lib/generico-lib.min.js"
        ]
    },

    {
        "nome_arquivo": "category",
        "arquivos": [
            "build/js-lib/generico-lib.min.js"
        ]
    },

    {
        "nome_arquivo": "default",
        "arquivos": [
            "build/js-lib/generico-lib.min.js"
        ]
    },

    {
        "nome_arquivo": "post-type",
        "arquivos": [
            "build/js-lib/generico-lib.min.js"
        ]
    },

    {
        "nome_arquivo": "search",
        "arquivos": [
            "build/js-lib/generico-lib.min.js"
        ]
    },

    {
        "nome_arquivo": "single",
        "arquivos": [
            "build/js-lib/generico-lib.min.js",
            "build/js/single.min.js"
        ]
    },

    {
        "nome_arquivo": "sobre_cac",
        "arquivos": [
            "build/js-lib/generico-lib.min.js"
        ]
    },
    {
        "nome_arquivo": "mcmv",
        "arquivos": [
            "build/js-lib/generico-lib.min.js"
        ]
    },
    {
        "nome_arquivo": "contato",
        "arquivos": [
            "build/js-lib/generico-lib.min.js"
        ]
    },
    {
        "nome_arquivo": "obrigado",
        "arquivos": [
            "build/js-lib/generico-lib.min.js"
        ]
    },

    {
        "nome_arquivo": "tag",
        "arquivos": [
            "build/js-lib/generico-lib.min.js"
        ]
    },

    {
        "nome_arquivo": "taxonomy",
        "arquivos": [
            "build/js-lib/generico-lib.min.js"
        ]
    },
    {
        "nome_arquivo": "imoveis",
        "arquivos": [
            "build/js-lib/generico-lib.min.js"
        ]
    }

]
