<?xml version="1.0" encoding="utf-8"?>
<!-- Generator: Adobe Illustrator 24.0.1, SVG Export Plug-In . SVG Version: 6.00 Build 0)  -->
<svg version="1.1" id="Camada_1" xmlns="http://www.w3.org/2000/svg" xmlns:xlink="http://www.w3.org/1999/xlink" x="0px" y="0px"
	 viewBox="0 0 100 100" style="enable-background:new 0 0 100 100;" xml:space="preserve">
<style type="text/css">
	.st0{fill:#AFAFAF;}
</style>
<g>
	<path class="st0" d="M29.3,78.4c2.1,0,3.9-1.7,3.9-3.9c0-2.1-1.7-3.9-3.9-3.9c-2.1,0-3.9,1.7-3.9,3.9c0,0,0,0,0,0
		C25.4,76.7,27.2,78.4,29.3,78.4z M29.3,73.1c0.8,0,1.4,0.6,1.4,1.4c0,0.8-0.6,1.4-1.4,1.4c-0.8,0-1.4-0.6-1.4-1.4c0,0,0,0,0,0
		C27.9,73.8,28.5,73.1,29.3,73.1z"/>
	<path class="st0" d="M70.7,78.4c2.1,0,3.9-1.7,3.9-3.9c0-2.1-1.7-3.9-3.9-3.9c-2.1,0-3.9,1.7-3.9,3.9c0,0,0,0,0,0
		C66.8,76.7,68.6,78.4,70.7,78.4z M70.7,73.1c0.8,0,1.4,0.6,1.4,1.4c0,0.8-0.6,1.4-1.4,1.4c-0.8,0-1.4-0.6-1.4-1.4c0,0,0,0,0,0
		C69.3,73.8,69.9,73.1,70.7,73.1z"/>
	<path class="st0" d="M19.6,65.5L19.6,65.5l2.4,0c-1.2,1.2-1.8,2.9-1.8,4.6c0,0,0,0.1,0,0.1l1.5,11.8c0,1.7,1.2,3.2,2.9,3.6V89
		c0,1.4,1.1,2.5,2.5,2.5c0,0,0,0,0,0H31c1.4,0,2.5-1.1,2.5-2.5v-3.4h33V89c0,1.4,1.1,2.5,2.5,2.5h3.9c1.4,0,2.5-1.1,2.5-2.5v-3.6
		c1.6-0.4,2.8-1.9,2.8-3.6l1.6-11.8c0-0.1,0-0.1,0-0.2c0-1.7-0.7-3.4-1.9-4.6h2.5c0.7,0,1.2-0.5,1.2-1.2c0,0,0,0,0-0.1
		c-0.1-0.8-0.2-1.6-0.5-2.4c-0.6-1.7-2.4-2.9-4.6-2.9c-1.2,0-3.3,0-4.4,0l-2-3.7c-1.5-2.7-3.7-5.7-7.3-5.7H37.4c-3,0-5.6,2-7.4,5.7
		l-2.1,3.7c-1.1,0-3.3,0-4.5,0c-2.2,0-4,1.1-4.6,2.9c-0.3,0.8-0.4,1.6-0.5,2.4c0,0.3,0.1,0.7,0.3,0.9C18.9,65.3,19.2,65.4,19.6,65.5
		z M31.1,89C31.1,89,31,89.1,31.1,89l-4,0.1c0,0,0,0,0-0.1v-3.4h4V89z M72.9,89.1H69c0,0-0.1,0-0.1-0.1v-3.4h4L72.9,89.1
		C72.9,89,72.9,89.1,72.9,89.1z M76.5,61.3c1.1,0,2.1,0.5,2.3,1.2c0.1,0.2,0.1,0.3,0.1,0.4l-4.6,0l-0.9-1.7
		C74.5,61.3,75.7,61.3,76.5,61.3z M32.1,56.3C32.1,56.3,32.2,56.3,32.1,56.3c0.8-1.7,2.6-4.4,5.3-4.4h25.4c1.9,0,3.4,1.3,5.2,4.4
		l4,7.4h-3.8c-0.6-3.5-3.9-6-7.5-5.4c-2.8,0.4-4.9,2.6-5.4,5.4H28L32.1,56.3z M65.7,63.7h-7.9c0.6-2.2,2.8-3.5,5-2.9
		C64.2,61.2,65.3,62.3,65.7,63.7z M74,66.2C74,66.2,74,66.2,74,66.2c1.6,0,3.3,1.4,3.3,3.7l-1.6,11.8c0,0.1,0,0.1,0,0.2
		c0,0.7-0.6,1.3-1.3,1.4h-49c-0.7,0-1.3-0.6-1.3-1.4c0-0.1,0-0.1,0-0.2l-1.5-11.8c0-1.8,1.2-3.6,3.1-3.8c0.1,0,0.1,0,0.2,0H74z
		 M21.1,62.5c0.2-0.7,1.2-1.2,2.3-1.2c0.8,0,2,0,3.1,0l-0.9,1.6l-4.6,0C21.1,62.8,21.1,62.7,21.1,62.5z"/>
	<path class="st0" d="M37.8,76.8h24.5c0.7,0,1.2-0.5,1.2-1.1c0-0.1,0-0.3-0.1-0.4l-0.8-2.5c-0.6-1.8-2.6-3.2-4.5-3.2H41.9
		c-1.9,0-3.9,1.4-4.5,3.3l-0.8,2.5c-0.1,0.4-0.1,0.8,0.2,1.1C37,76.6,37.4,76.8,37.8,76.8z M39.7,73.5c0.3-0.8,1.3-1.6,2.2-1.6H58
		c0.9,0,1.9,0.7,2.2,1.6l0.3,0.9H39.4L39.7,73.5z"/>
	<path class="st0" d="M35.3,81.4h30.2c0.7,0,1.2-0.5,1.2-1.2S66.2,79,65.5,79H35.3c-0.7,0-1.2,0.5-1.2,1.2S34.6,81.4,35.3,81.4z"/>
	<path class="st0" d="M38.7,28.8h22.6c0.7,0,1.2-0.6,1.2-1.2c0-6.3-4.7-11.6-10.9-12.4c0,0,0,0,0,0V9.7c0-0.7-0.5-1.2-1.2-1.2
		c-0.7,0-1.2,0.5-1.2,1.2V15c-6.6,0.5-11.6,5.9-11.6,12.5C37.5,28.2,38,28.8,38.7,28.8z M50,17.5c5.1,0,9.4,3.8,10,8.9H40
		C40.6,21.3,44.9,17.5,50,17.5z"/>
	<path class="st0" d="M37,32.3H63c0.7,0,1.2-0.5,1.2-1.2c0-0.7-0.5-1.2-1.2-1.2H37c-0.7,0-1.2,0.5-1.2,1.2
		C35.7,31.7,36.3,32.3,37,32.3z"/>
	<path class="st0" d="M37,38.7c0.7,0,1.2-0.5,1.2-1.2v-2.4c0-0.7-0.5-1.2-1.2-1.2c-0.7,0-1.2,0.5-1.2,1.2v2.4
		C35.7,38.2,36.3,38.7,37,38.7z"/>
	<path class="st0" d="M63,38.7c0.7,0,1.2-0.5,1.2-1.2v-2.4c0-0.7-0.5-1.2-1.2-1.2c-0.7,0-1.2,0.5-1.2,1.2v2.4
		C61.8,38.2,62.4,38.7,63,38.7z"/>
	<path class="st0" d="M41.3,38.7c0.7,0,1.2-0.5,1.2-1.2v-2.4c0-0.7-0.5-1.2-1.2-1.2c-0.7,0-1.2,0.5-1.2,1.2v2.4
		C40.1,38.2,40.6,38.7,41.3,38.7z"/>
	<path class="st0" d="M45.7,38.7c0.7,0,1.2-0.5,1.2-1.2v-2.4c0-0.7-0.5-1.2-1.2-1.2s-1.2,0.5-1.2,1.2v2.4
		C44.4,38.2,45,38.7,45.7,38.7z"/>
	<path class="st0" d="M50,38.7c0.7,0,1.2-0.5,1.2-1.2v-2.4c0-0.7-0.5-1.2-1.2-1.2s-1.2,0.5-1.2,1.2v2.4C48.8,38.2,49.3,38.7,50,38.7
		z"/>
	<path class="st0" d="M54.3,38.7c0.7,0,1.2-0.5,1.2-1.2v-2.4c0-0.7-0.5-1.2-1.2-1.2c-0.7,0-1.2,0.5-1.2,1.2v2.4
		C53.1,38.2,53.7,38.7,54.3,38.7z"/>
	<path class="st0" d="M58.7,38.7c0.7,0,1.2-0.5,1.2-1.2v-2.4c0-0.7-0.5-1.2-1.2-1.2c-0.7,0-1.2,0.5-1.2,1.2v2.4
		C57.5,38.2,58,38.7,58.7,38.7z"/>
	<path class="st0" d="M39.1,39.9c-0.7,0-1.2,0.5-1.2,1.2l0,0v2.4c0,0.7,0.5,1.2,1.2,1.2s1.2-0.5,1.2-1.2v-2.4
		C40.3,40.5,39.7,39.9,39.1,39.9L39.1,39.9z"/>
	<path class="st0" d="M43.4,44.8c0.7,0,1.2-0.5,1.2-1.2v-2.4c0-0.7-0.5-1.2-1.2-1.2c-0.7,0-1.2,0.5-1.2,1.2l0,0v2.4
		C42.2,44.3,42.7,44.8,43.4,44.8z"/>
	<path class="st0" d="M47.7,44.8c0.7,0,1.2-0.5,1.2-1.2v-2.4c0-0.7-0.5-1.2-1.2-1.2c-0.7,0-1.2,0.5-1.2,1.2l0,0v2.4
		C46.5,44.3,47.1,44.8,47.7,44.8z"/>
	<path class="st0" d="M52.1,44.8c0.7,0,1.2-0.5,1.2-1.2v-2.4c0-0.7-0.5-1.2-1.2-1.2c-0.7,0-1.2,0.5-1.2,1.2l0,0v2.4
		C50.9,44.3,51.4,44.8,52.1,44.8z"/>
	<path class="st0" d="M56.4,44.8c0.7,0,1.2-0.5,1.2-1.2v-2.4c0-0.7-0.5-1.2-1.2-1.2s-1.2,0.5-1.2,1.2l0,0v2.4
		C55.2,44.3,55.8,44.8,56.4,44.8z"/>
	<path class="st0" d="M60.8,44.8c0.7,0,1.2-0.5,1.2-1.2v-2.4c0-0.7-0.5-1.2-1.2-1.2s-1.2,0.5-1.2,1.2l0,0v2.4
		C59.6,44.3,60.1,44.8,60.8,44.8z"/>
</g>
</svg>
