<?xml version="1.0" encoding="utf-8"?>
<!-- Generator: Adobe Illustrator 24.0.1, SVG Export Plug-In . SVG Version: 6.00 Build 0)  -->
<svg version="1.1" id="Camada_1" xmlns="http://www.w3.org/2000/svg" xmlns:xlink="http://www.w3.org/1999/xlink" x="0px" y="0px"
	 viewBox="0 0 100 100" style="enable-background:new 0 0 100 100;" xml:space="preserve">
<style type="text/css">
	.st0{fill:#AFAFAF;}
</style>
<g>
	<g>
		<g>
			<path class="st0" d="M84.2,41.1c-0.5-0.3-1.2-0.3-1.7,0l-11,5.7v-4.9c0-0.9-0.8-1.7-1.7-1.7H67c3.5-2.7,5.7-6.9,5.7-11.5
				c0-8.2-6.9-14.8-15.3-14.8c-7.2,0-13.2,4.8-14.9,11.3c-2.1-2.5-5.3-4-8.9-4c-6.4,0-11.5,5-11.5,11.2c0,3.1,1.3,5.8,3.4,7.9h-1.6
				c-0.9,0-1.7,0.7-1.7,1.7v7.5h-4.3c-0.9,0-1.7,0.7-1.7,1.7v6.5c0,0.9,0.8,1.7,1.7,1.7h4.3v7.5c0,0.9,0.8,1.7,1.7,1.7H44l-9.2,17.2
				c-0.4,0.8-0.1,1.8,0.7,2.2c0.3,0.1,0.5,0.2,0.8,0.2c0.6,0,1.2-0.3,1.5-0.9l9-16.8l9,16.8c0.3,0.6,0.9,0.9,1.5,0.9
				c0.3,0,0.5-0.1,0.8-0.2c0.8-0.4,1.2-1.4,0.7-2.2l-9.2-17.2h20.1c0.9,0,1.7-0.7,1.7-1.7v-4.9l11,5.7c0.3,0.1,0.5,0.2,0.8,0.2
				c0.3,0,0.6-0.1,0.9-0.2c0.5-0.3,0.8-0.8,0.8-1.4V42.5C85,41.9,84.7,41.4,84.2,41.1z M22.2,55.8h-2.6v-3.2h2.6V55.8z M57.4,17.2
				c6.5,0,11.9,5.2,11.9,11.5s-5.3,11.5-11.9,11.5c-6.5,0-11.9-5.2-11.9-11.5C45.5,22.4,50.8,17.2,57.4,17.2z M44.4,36.4
				c0.9,1.4,2.1,2.7,3.4,3.8h-5.9C42.9,39.1,43.8,37.9,44.4,36.4z M33.6,24.5c4.5,0,8.1,3.5,8.1,7.9s-3.6,7.9-8.1,7.9
				c-4.5,0-8.1-3.5-8.1-7.9C25.5,28,29.2,24.5,33.6,24.5z M68.1,49.5v9.4v6H46.9c0,0,0,0,0,0h0c0,0,0,0,0,0H25.6v-7.5V51v-7.5h42.4
				V49.5z M81.6,63.2l-10.1-5.3v-7.4l10.1-5.3V63.2z"/>
		</g>
	</g>
	<g>
		<g>
			<path class="st0" d="M33.6,27.3c-2.9,0-5.2,2.2-5.2,5c0,2.8,2.3,5,5.2,5c2.9,0,5.2-2.2,5.2-5C38.8,29.6,36.5,27.3,33.6,27.3z
				 M33.6,34.4c-1.2,0-2.1-0.9-2.1-2s0.9-2,2.1-2c1.2,0,2.1,0.9,2.1,2S34.8,34.4,33.6,34.4z"/>
		</g>
	</g>
	<g>
		<g>
			<path class="st0" d="M57.4,21.5c-4.1,0-7.4,3.2-7.4,7.2c0,4,3.3,7.2,7.4,7.2s7.4-3.2,7.4-7.2C64.8,24.7,61.5,21.5,57.4,21.5z
				 M57.4,32.6c-2.2,0-4-1.7-4-3.9s1.8-3.9,4-3.9c2.2,0,4,1.7,4,3.9S59.6,32.6,57.4,32.6z"/>
		</g>
	</g>
	<g>
		<g>
			<path class="st0" d="M51.9,48.3H33.3c-0.9,0-1.6,0.7-1.6,1.6v8.7c0,0.9,0.7,1.6,1.6,1.6h18.5c0.9,0,1.6-0.7,1.6-1.6v-8.7
				C53.5,49,52.8,48.3,51.9,48.3z M50.3,57H35v-5.6h15.3L50.3,57L50.3,57z"/>
		</g>
	</g>
	<g>
		<g>
			<ellipse class="st0" cx="60.8" cy="51.5" rx="1.7" ry="1.7"/>
		</g>
	</g>
	<g>
		<g>
			<ellipse class="st0" cx="60.8" cy="56.9" rx="1.7" ry="1.7"/>
		</g>
	</g>
</g>
</svg>
