<svg xmlns="http://www.w3.org/2000/svg" width="62.995" height="37.002" viewBox="0 0 62.995 37.002">
  <g id="Bicicletario" transform="translate(-4.8 -23.4)">
    <g id="Grupo_246" data-name="Grupo 246" transform="translate(4.8 23.4)">
      <path id="Caminho_204" data-name="Caminho 204" d="M93.2,51.6V62.75a11.846,11.846,0,0,0,0-11.15Z" transform="translate(-31.599 -31.949)" fill="#aeaeae"/>
      <path id="Caminho_205" data-name="Caminho 205" d="M80.5,46.978A4.462,4.462,0,0,0,72,48.651l2.648,5.3a2.309,2.309,0,0,0-.279,1.045A2.091,2.091,0,1,0,76.739,52.9l-3.205-6.411A9.9,9.9,0,0,1,76.46,46,8.659,8.659,0,0,1,80.5,46.978Z" transform="translate(-25.172 -29.766)" fill="#aeaeae"/>
      <path id="Caminho_206" data-name="Caminho 206" d="M30.324,28.848h5.087a1.324,1.324,0,1,0,0-2.648H30.324A1.323,1.323,0,0,0,29,27.524,1.371,1.371,0,0,0,30.324,28.848Z" transform="translate(-12.136 -24.249)" fill="#aeaeae"/>
      <path id="Caminho_207" data-name="Caminho 207" d="M48.283,35.734a13.566,13.566,0,0,1,1.812-1.672l-4.739-9.547A1.407,1.407,0,0,0,44.032,23.4H38.945a1.324,1.324,0,1,0,0,2.648h4.6l1.394,2.787H25.775c-.488,0-.836,0-1.115.836l-3.9,7.874a12.022,12.022,0,0,0-4.181-.767A11.777,11.777,0,1,0,28.284,49.81H37.9a.857.857,0,0,0,.767-.488l8.292-16.515ZM21.594,41.239a9.044,9.044,0,0,1,3.833,6.2H18.458ZM16.507,57.615a8.989,8.989,0,0,1,0-17.979,9.9,9.9,0,0,1,2.927.488l-3.205,6.411a2.1,2.1,0,1,0,2.021,3.275h7.108A8.95,8.95,0,0,1,16.507,57.615ZM28.214,47.441a11.679,11.679,0,0,0-5.366-8.711L25.914,32.6l9.547,14.843Zm9.268-1.254L27.866,31.344h17Z" transform="translate(-4.8 -23.4)" fill="#aeaeae"/>
      <path id="Caminho_208" data-name="Caminho 208" d="M80.859,70.7a9.005,9.005,0,0,1-4.529,1.254A8.358,8.358,0,0,1,71.8,70.7v3.136a11.777,11.777,0,0,0,9.059,0Z" transform="translate(-25.111 -37.739)" fill="#aeaeae"/>
      <path id="Caminho_209" data-name="Caminho 209" d="M62.894,51.6a11.846,11.846,0,0,0,0,11.15Z" transform="translate(-21.989 -31.949)" fill="#aeaeae"/>
    </g>
    <g id="Grupo_247" data-name="Grupo 247" transform="translate(47.377 33.783)">
      <path id="Caminho_210" data-name="Caminho 210" d="M83.321,64.85H80.673V47.08a6.063,6.063,0,1,0-12.125,0V64.85H65.9V47.08a8.78,8.78,0,0,1,17.56,0V64.85Z" transform="translate(-65.9 -38.3)" fill="#aeaeae"/>
    </g>
  </g>
</svg>
