<svg xmlns="http://www.w3.org/2000/svg" width="39.669" height="54.603" viewBox="0 0 39.669 54.603">
  <g id="Segurança_24_horas" data-name="Segurança 24 horas" transform="translate(-24.5 -14.9)">
    <g id="Grupo_269" data-name="Grupo 269" transform="translate(29.704 26.023)">
      <path id="Caminho_232" data-name="Caminho 232" d="M46.967,44.467q0-2.567-3.267-2.567a5.684,5.684,0,0,0-2.567.622V44a4.9,4.9,0,0,1,2.567-.7q1.633,0,1.633,1.167c0,1.322-1.478,3.033-4.434,5.056v1.245h6.067v-1.4H43.389C45.8,47.656,46.967,46.022,46.967,44.467Z" transform="translate(-33.348 -32.022)" fill="#aeaeae"/>
      <path id="Caminho_233" data-name="Caminho 233" d="M56.145,50.767V48.9h.933v-.467l-.933-.856V44.622H54.511v2.956H51.867l3.5-5.678H53.656L50,47.656V48.9h4.511v1.867Z" transform="translate(-35.37 -32.022)" fill="#aeaeae"/>
      <path id="Caminho_234" data-name="Caminho 234" d="M58.733,43.045l1.711-6.689-2.1.622a14.394,14.394,0,1,0-12.834,21,14.683,14.683,0,0,0,8.867-2.8,13.351,13.351,0,0,0,4.978-7.467l.156-.622-2.722-.856-.156.389a11.786,11.786,0,0,1-9.178,8.4,11.5,11.5,0,0,1-13.223-13.3,11.654,11.654,0,0,1,9.645-9.412,11.5,11.5,0,0,1,11.589,5.6l-2.256.467Z" transform="translate(-31.191 -29.2)" fill="#aeaeae"/>
    </g>
    <g id="Grupo_270" data-name="Grupo 270" transform="translate(24.5 14.9)">
      <path id="Caminho_235" data-name="Caminho 235" d="M44.334,69.5l-.544-.233c-.778-.311-19.29-7.078-19.29-18.356V20.345l.778-.467A37.611,37.611,0,0,1,44.334,14.9a38.881,38.881,0,0,1,19.057,4.978l.778.467V50.913c0,11.278-18.434,18.045-19.29,18.356ZM27.845,22.289v28.7c0,7.156,11.434,13.067,16.49,15.012a54.389,54.389,0,0,0,8.245-4.2c3.734-2.411,8.245-6.3,8.245-10.812v-28.7a36.545,36.545,0,0,0-16.49-4.045A35.521,35.521,0,0,0,27.845,22.289Z" transform="translate(-24.5 -14.9)" fill="#aeaeae"/>
    </g>
  </g>
</svg>
