<svg xmlns="http://www.w3.org/2000/svg" width="61.09" height="59.459" viewBox="0 0 61.09 59.459">
  <g id="Grupo_340" data-name="Grupo 340" transform="translate(0.5 0.5)">
    <g id="Grupo_338" data-name="Grupo 338">
      <path id="Caminho_294" data-name="Caminho 294" d="M29.233,58.459A29.23,29.23,0,1,1,43.611,3.786L41.139,7.018A25.308,25.308,0,1,0,54.3,26.721l3.338-4.359a29.248,29.248,0,0,1-28.405,36.1Z" fill="#676767" stroke="#cecece" stroke-linejoin="bevel" stroke-width="1"/>
      <path id="Caminho_295" data-name="Caminho 295" d="M99.063,55.015a3.887,3.887,0,0,1-3.027-1.442L84,38.76a3.913,3.913,0,0,1,.571-5.49,3.906,3.906,0,0,1,5.493.568L98.975,44.81l23.984-31.328a3.9,3.9,0,1,1,6.2,4.745l-27,35.257a3.865,3.865,0,0,1-3.027,1.534h-.069Z" transform="translate(-69.875 -10.044)" fill="#676767" stroke="#cecece" stroke-linejoin="bevel" stroke-width="1"/>
    </g>
  </g>
</svg>
