<svg xmlns="http://www.w3.org/2000/svg" width="19" height="17" viewBox="0 0 19 17">
  <g id="Grupo_98" data-name="Grupo 98" transform="translate(-288 -291.5)">
    <path id="Caminho_125" data-name="Caminho 125" d="M299.338,297.338V295H297v4.675" transform="translate(-5.494 -1.831)" fill="none" stroke="#aeaeae" stroke-linejoin="round" stroke-width="1"/>
    <path id="Caminho_126" data-name="Caminho 126" d="M307.636,317v5.844H294V317" transform="translate(-3.662 -15.26)" fill="none" stroke="#aeaeae" stroke-linejoin="round" stroke-width="1"/>
    <path id="Caminho_127" data-name="Caminho 127" d="M298.571,292,290,300.571l1.558,1.558,7.013-7.013,7.013,7.013,1.558-1.558Z" transform="translate(-1.221)" fill="none" stroke="#aeaeae" stroke-linejoin="round" stroke-width="1"/>
    <line id="Linha_24" data-name="Linha 24" x2="19" transform="translate(288 308)" fill="none" stroke="#aeaeae" stroke-linejoin="round" stroke-width="1"/>
  </g>
</svg>
