<svg xmlns="http://www.w3.org/2000/svg" width="75.826" height="74.562" viewBox="0 0 75.826 74.562">
  <g id="hotel" transform="translate(0 -4)">
    <g id="Grupo_361" data-name="Grupo 361" transform="translate(0 4)">
      <g id="Grupo_360" data-name="Grupo 360">
        <path id="Caminho_325" data-name="Caminho 325" d="M74.562,15.374h-13.9V5.264A1.264,1.264,0,0,0,59.4,4H16.429a1.264,1.264,0,0,0-1.264,1.264V22.956H1.264A1.264,1.264,0,0,0,0,24.22V76.034a1.264,1.264,0,1,0,2.528,0V25.484H15.165V77.3a1.264,1.264,0,0,0,1.264,1.264H59.4A1.264,1.264,0,0,0,60.661,77.3V17.9H73.3V76.034a1.264,1.264,0,1,0,2.528,0v-59.4A1.264,1.264,0,0,0,74.562,15.374ZM36.649,76.034H31.594V64.661h5.055Zm7.583,0H39.177V64.661h5.055Zm13.9,0H46.759V63.4A1.264,1.264,0,0,0,45.5,62.133H30.33A1.264,1.264,0,0,0,29.067,63.4V76.034H17.693V6.528h40.44Z" transform="translate(0 -4)" fill="#aeaeae"/>
      </g>
    </g>
    <g id="Grupo_363" data-name="Grupo 363" transform="translate(20.22 9.055)">
      <g id="Grupo_362" data-name="Grupo 362">
        <path id="Caminho_326" data-name="Caminho 326" d="M136.846,36h-7.583A1.264,1.264,0,0,0,128,37.264v7.583a1.264,1.264,0,0,0,1.264,1.264h7.583a1.264,1.264,0,0,0,1.264-1.264V37.264A1.264,1.264,0,0,0,136.846,36Zm-1.264,7.583h-5.055V38.528h5.055Z" transform="translate(-128 -36)" fill="#aeaeae"/>
      </g>
    </g>
    <g id="Grupo_365" data-name="Grupo 365" transform="translate(32.858 9.055)">
      <g id="Grupo_364" data-name="Grupo 364">
        <path id="Caminho_327" data-name="Caminho 327" d="M216.846,36h-7.583A1.264,1.264,0,0,0,208,37.264v7.583a1.264,1.264,0,0,0,1.264,1.264h7.583a1.264,1.264,0,0,0,1.264-1.264V37.264A1.264,1.264,0,0,0,216.846,36Zm-1.264,7.583h-5.055V38.528h5.055Z" transform="translate(-208 -36)" fill="#aeaeae"/>
      </g>
    </g>
    <g id="Grupo_367" data-name="Grupo 367" transform="translate(45.495 9.055)">
      <g id="Grupo_366" data-name="Grupo 366">
        <path id="Caminho_328" data-name="Caminho 328" d="M296.846,36h-7.583A1.264,1.264,0,0,0,288,37.264v7.583a1.264,1.264,0,0,0,1.264,1.264h7.583a1.264,1.264,0,0,0,1.264-1.264V37.264A1.264,1.264,0,0,0,296.846,36Zm-1.264,7.583h-5.055V38.528h5.055Z" transform="translate(-288 -36)" fill="#aeaeae"/>
      </g>
    </g>
    <g id="Grupo_369" data-name="Grupo 369" transform="translate(20.22 21.693)">
      <g id="Grupo_368" data-name="Grupo 368">
        <path id="Caminho_329" data-name="Caminho 329" d="M136.846,116h-7.583A1.264,1.264,0,0,0,128,117.264v7.583a1.264,1.264,0,0,0,1.264,1.264h7.583a1.264,1.264,0,0,0,1.264-1.264v-7.583A1.264,1.264,0,0,0,136.846,116Zm-1.264,7.583h-5.055v-5.055h5.055Z" transform="translate(-128 -116)" fill="#aeaeae"/>
      </g>
    </g>
    <g id="Grupo_371" data-name="Grupo 371" transform="translate(32.858 21.693)">
      <g id="Grupo_370" data-name="Grupo 370">
        <path id="Caminho_330" data-name="Caminho 330" d="M216.846,116h-7.583A1.264,1.264,0,0,0,208,117.264v7.583a1.264,1.264,0,0,0,1.264,1.264h7.583a1.264,1.264,0,0,0,1.264-1.264v-7.583A1.264,1.264,0,0,0,216.846,116Zm-1.264,7.583h-5.055v-5.055h5.055Z" transform="translate(-208 -116)" fill="#aeaeae"/>
      </g>
    </g>
    <g id="Grupo_373" data-name="Grupo 373" transform="translate(45.495 21.693)">
      <g id="Grupo_372" data-name="Grupo 372">
        <path id="Caminho_331" data-name="Caminho 331" d="M296.846,116h-7.583A1.264,1.264,0,0,0,288,117.264v7.583a1.264,1.264,0,0,0,1.264,1.264h7.583a1.264,1.264,0,0,0,1.264-1.264v-7.583A1.264,1.264,0,0,0,296.846,116Zm-1.264,7.583h-5.055v-5.055h5.055Z" transform="translate(-288 -116)" fill="#aeaeae"/>
      </g>
    </g>
    <g id="Grupo_375" data-name="Grupo 375" transform="translate(20.22 34.33)">
      <g id="Grupo_374" data-name="Grupo 374">
        <path id="Caminho_332" data-name="Caminho 332" d="M136.846,196h-7.583A1.264,1.264,0,0,0,128,197.264v7.583a1.264,1.264,0,0,0,1.264,1.264h7.583a1.264,1.264,0,0,0,1.264-1.264v-7.583A1.264,1.264,0,0,0,136.846,196Zm-1.264,7.583h-5.055v-5.055h5.055Z" transform="translate(-128 -196)" fill="#aeaeae"/>
      </g>
    </g>
    <g id="Grupo_377" data-name="Grupo 377" transform="translate(32.858 34.33)">
      <g id="Grupo_376" data-name="Grupo 376">
        <path id="Caminho_333" data-name="Caminho 333" d="M216.846,196h-7.583A1.264,1.264,0,0,0,208,197.264v7.583a1.264,1.264,0,0,0,1.264,1.264h7.583a1.264,1.264,0,0,0,1.264-1.264v-7.583A1.264,1.264,0,0,0,216.846,196Zm-1.264,7.583h-5.055v-5.055h5.055Z" transform="translate(-208 -196)" fill="#aeaeae"/>
      </g>
    </g>
    <g id="Grupo_379" data-name="Grupo 379" transform="translate(45.495 34.33)">
      <g id="Grupo_378" data-name="Grupo 378">
        <path id="Caminho_334" data-name="Caminho 334" d="M296.846,196h-7.583A1.264,1.264,0,0,0,288,197.264v7.583a1.264,1.264,0,0,0,1.264,1.264h7.583a1.264,1.264,0,0,0,1.264-1.264v-7.583A1.264,1.264,0,0,0,296.846,196Zm-1.264,7.583h-5.055v-5.055h5.055Z" transform="translate(-288 -196)" fill="#aeaeae"/>
      </g>
    </g>
    <g id="Grupo_381" data-name="Grupo 381" transform="translate(20.22 46.968)">
      <g id="Grupo_380" data-name="Grupo 380">
        <path id="Caminho_335" data-name="Caminho 335" d="M136.846,276h-7.583A1.264,1.264,0,0,0,128,277.264v7.583a1.264,1.264,0,0,0,1.264,1.264h7.583a1.264,1.264,0,0,0,1.264-1.264v-7.583A1.264,1.264,0,0,0,136.846,276Zm-1.264,7.583h-5.055v-5.055h5.055Z" transform="translate(-128 -276)" fill="#aeaeae"/>
      </g>
    </g>
    <g id="Grupo_383" data-name="Grupo 383" transform="translate(32.858 46.968)">
      <g id="Grupo_382" data-name="Grupo 382">
        <path id="Caminho_336" data-name="Caminho 336" d="M216.846,276h-7.583A1.264,1.264,0,0,0,208,277.264v7.583a1.264,1.264,0,0,0,1.264,1.264h7.583a1.264,1.264,0,0,0,1.264-1.264v-7.583A1.264,1.264,0,0,0,216.846,276Zm-1.264,7.583h-5.055v-5.055h5.055Z" transform="translate(-208 -276)" fill="#aeaeae"/>
      </g>
    </g>
    <g id="Grupo_385" data-name="Grupo 385" transform="translate(45.495 46.968)">
      <g id="Grupo_384" data-name="Grupo 384">
        <path id="Caminho_337" data-name="Caminho 337" d="M296.846,276h-7.583A1.264,1.264,0,0,0,288,277.264v7.583a1.264,1.264,0,0,0,1.264,1.264h7.583a1.264,1.264,0,0,0,1.264-1.264v-7.583A1.264,1.264,0,0,0,296.846,276Zm-1.264,7.583h-5.055v-5.055h5.055Z" transform="translate(-288 -276)" fill="#aeaeae"/>
      </g>
    </g>
    <g id="Grupo_387" data-name="Grupo 387" transform="translate(5.055 28.011)">
      <g id="Grupo_386" data-name="Grupo 386">
        <path id="Caminho_338" data-name="Caminho 338" d="M34.528,156H33.264A1.264,1.264,0,0,0,32,157.264v1.264a1.264,1.264,0,0,0,1.264,1.264h1.264a1.264,1.264,0,0,0,1.264-1.264v-1.264A1.264,1.264,0,0,0,34.528,156Z" transform="translate(-32 -156)" fill="#aeaeae"/>
      </g>
    </g>
    <g id="Grupo_389" data-name="Grupo 389" transform="translate(10.11 28.011)">
      <g id="Grupo_388" data-name="Grupo 388">
        <path id="Caminho_339" data-name="Caminho 339" d="M66.528,156H65.264A1.264,1.264,0,0,0,64,157.264v1.264a1.264,1.264,0,0,0,1.264,1.264h1.264a1.264,1.264,0,0,0,1.264-1.264v-1.264A1.264,1.264,0,0,0,66.528,156Z" transform="translate(-64 -156)" fill="#aeaeae"/>
      </g>
    </g>
    <g id="Grupo_391" data-name="Grupo 391" transform="translate(5.055 33.067)">
      <g id="Grupo_390" data-name="Grupo 390">
        <path id="Caminho_340" data-name="Caminho 340" d="M34.528,188H33.264A1.264,1.264,0,0,0,32,189.264v1.264a1.264,1.264,0,0,0,1.264,1.264h1.264a1.264,1.264,0,0,0,1.264-1.264v-1.264A1.264,1.264,0,0,0,34.528,188Z" transform="translate(-32 -188)" fill="#aeaeae"/>
      </g>
    </g>
    <g id="Grupo_393" data-name="Grupo 393" transform="translate(10.11 33.067)">
      <g id="Grupo_392" data-name="Grupo 392">
        <path id="Caminho_341" data-name="Caminho 341" d="M66.528,188H65.264A1.264,1.264,0,0,0,64,189.264v1.264a1.264,1.264,0,0,0,1.264,1.264h1.264a1.264,1.264,0,0,0,1.264-1.264v-1.264A1.264,1.264,0,0,0,66.528,188Z" transform="translate(-64 -188)" fill="#aeaeae"/>
      </g>
    </g>
    <g id="Grupo_395" data-name="Grupo 395" transform="translate(5.055 38.122)">
      <g id="Grupo_394" data-name="Grupo 394">
        <path id="Caminho_342" data-name="Caminho 342" d="M34.528,220H33.264A1.264,1.264,0,0,0,32,221.264v1.264a1.264,1.264,0,0,0,1.264,1.264h1.264a1.264,1.264,0,0,0,1.264-1.264v-1.264A1.264,1.264,0,0,0,34.528,220Z" transform="translate(-32 -220)" fill="#aeaeae"/>
      </g>
    </g>
    <g id="Grupo_397" data-name="Grupo 397" transform="translate(10.11 38.122)">
      <g id="Grupo_396" data-name="Grupo 396">
        <path id="Caminho_343" data-name="Caminho 343" d="M66.528,220H65.264A1.264,1.264,0,0,0,64,221.264v1.264a1.264,1.264,0,0,0,1.264,1.264h1.264a1.264,1.264,0,0,0,1.264-1.264v-1.264A1.264,1.264,0,0,0,66.528,220Z" transform="translate(-64 -220)" fill="#aeaeae"/>
      </g>
    </g>
    <g id="Grupo_399" data-name="Grupo 399" transform="translate(5.055 43.177)">
      <g id="Grupo_398" data-name="Grupo 398">
        <path id="Caminho_344" data-name="Caminho 344" d="M34.528,252H33.264A1.264,1.264,0,0,0,32,253.264v1.264a1.264,1.264,0,0,0,1.264,1.264h1.264a1.264,1.264,0,0,0,1.264-1.264v-1.264A1.264,1.264,0,0,0,34.528,252Z" transform="translate(-32 -252)" fill="#aeaeae"/>
      </g>
    </g>
    <g id="Grupo_401" data-name="Grupo 401" transform="translate(10.11 43.177)">
      <g id="Grupo_400" data-name="Grupo 400">
        <path id="Caminho_345" data-name="Caminho 345" d="M66.528,252H65.264A1.264,1.264,0,0,0,64,253.264v1.264a1.264,1.264,0,0,0,1.264,1.264h1.264a1.264,1.264,0,0,0,1.264-1.264v-1.264A1.264,1.264,0,0,0,66.528,252Z" transform="translate(-64 -252)" fill="#aeaeae"/>
      </g>
    </g>
    <g id="Grupo_403" data-name="Grupo 403" transform="translate(5.055 48.232)">
      <g id="Grupo_402" data-name="Grupo 402">
        <path id="Caminho_346" data-name="Caminho 346" d="M34.528,284H33.264A1.264,1.264,0,0,0,32,285.264v1.264a1.264,1.264,0,0,0,1.264,1.264h1.264a1.264,1.264,0,0,0,1.264-1.264v-1.264A1.264,1.264,0,0,0,34.528,284Z" transform="translate(-32 -284)" fill="#aeaeae"/>
      </g>
    </g>
    <g id="Grupo_405" data-name="Grupo 405" transform="translate(10.11 48.232)">
      <g id="Grupo_404" data-name="Grupo 404">
        <path id="Caminho_347" data-name="Caminho 347" d="M66.528,284H65.264A1.264,1.264,0,0,0,64,285.264v1.264a1.264,1.264,0,0,0,1.264,1.264h1.264a1.264,1.264,0,0,0,1.264-1.264v-1.264A1.264,1.264,0,0,0,66.528,284Z" transform="translate(-64 -284)" fill="#aeaeae"/>
      </g>
    </g>
    <g id="Grupo_407" data-name="Grupo 407" transform="translate(5.055 53.287)">
      <g id="Grupo_406" data-name="Grupo 406">
        <path id="Caminho_348" data-name="Caminho 348" d="M34.528,316H33.264A1.264,1.264,0,0,0,32,317.264v1.264a1.264,1.264,0,0,0,1.264,1.264h1.264a1.264,1.264,0,0,0,1.264-1.264v-1.264A1.264,1.264,0,0,0,34.528,316Z" transform="translate(-32 -316)" fill="#aeaeae"/>
      </g>
    </g>
    <g id="Grupo_409" data-name="Grupo 409" transform="translate(10.11 53.287)">
      <g id="Grupo_408" data-name="Grupo 408">
        <path id="Caminho_349" data-name="Caminho 349" d="M66.528,316H65.264A1.264,1.264,0,0,0,64,317.264v1.264a1.264,1.264,0,0,0,1.264,1.264h1.264a1.264,1.264,0,0,0,1.264-1.264v-1.264A1.264,1.264,0,0,0,66.528,316Z" transform="translate(-64 -316)" fill="#aeaeae"/>
      </g>
    </g>
    <g id="Grupo_411" data-name="Grupo 411" transform="translate(5.055 58.342)">
      <g id="Grupo_410" data-name="Grupo 410">
        <path id="Caminho_350" data-name="Caminho 350" d="M34.528,348H33.264A1.264,1.264,0,0,0,32,349.264v1.264a1.264,1.264,0,0,0,1.264,1.264h1.264a1.264,1.264,0,0,0,1.264-1.264v-1.264A1.264,1.264,0,0,0,34.528,348Z" transform="translate(-32 -348)" fill="#aeaeae"/>
      </g>
    </g>
    <g id="Grupo_413" data-name="Grupo 413" transform="translate(10.11 58.342)">
      <g id="Grupo_412" data-name="Grupo 412">
        <path id="Caminho_351" data-name="Caminho 351" d="M66.528,348H65.264A1.264,1.264,0,0,0,64,349.264v1.264a1.264,1.264,0,0,0,1.264,1.264h1.264a1.264,1.264,0,0,0,1.264-1.264v-1.264A1.264,1.264,0,0,0,66.528,348Z" transform="translate(-64 -348)" fill="#aeaeae"/>
      </g>
    </g>
    <g id="Grupo_415" data-name="Grupo 415" transform="translate(5.055 63.397)">
      <g id="Grupo_414" data-name="Grupo 414">
        <path id="Caminho_352" data-name="Caminho 352" d="M34.528,380H33.264A1.264,1.264,0,0,0,32,381.264v1.264a1.264,1.264,0,0,0,1.264,1.264h1.264a1.264,1.264,0,0,0,1.264-1.264v-1.264A1.264,1.264,0,0,0,34.528,380Z" transform="translate(-32 -380)" fill="#aeaeae"/>
      </g>
    </g>
    <g id="Grupo_417" data-name="Grupo 417" transform="translate(10.11 63.397)">
      <g id="Grupo_416" data-name="Grupo 416">
        <path id="Caminho_353" data-name="Caminho 353" d="M66.528,380H65.264A1.264,1.264,0,0,0,64,381.264v1.264a1.264,1.264,0,0,0,1.264,1.264h1.264a1.264,1.264,0,0,0,1.264-1.264v-1.264A1.264,1.264,0,0,0,66.528,380Z" transform="translate(-64 -380)" fill="#aeaeae"/>
      </g>
    </g>
    <g id="Grupo_419" data-name="Grupo 419" transform="translate(5.055 68.452)">
      <g id="Grupo_418" data-name="Grupo 418">
        <path id="Caminho_354" data-name="Caminho 354" d="M34.528,412H33.264A1.264,1.264,0,0,0,32,413.264v1.264a1.264,1.264,0,0,0,1.264,1.264h1.264a1.264,1.264,0,0,0,1.264-1.264v-1.264A1.264,1.264,0,0,0,34.528,412Z" transform="translate(-32 -412)" fill="#aeaeae"/>
      </g>
    </g>
    <g id="Grupo_421" data-name="Grupo 421" transform="translate(10.11 68.452)">
      <g id="Grupo_420" data-name="Grupo 420">
        <path id="Caminho_355" data-name="Caminho 355" d="M66.528,412H65.264A1.264,1.264,0,0,0,64,413.264v1.264a1.264,1.264,0,0,0,1.264,1.264h1.264a1.264,1.264,0,0,0,1.264-1.264v-1.264A1.264,1.264,0,0,0,66.528,412Z" transform="translate(-64 -412)" fill="#aeaeae"/>
      </g>
    </g>
    <g id="Grupo_423" data-name="Grupo 423" transform="translate(63.188 20.429)">
      <g id="Grupo_422" data-name="Grupo 422">
        <path id="Caminho_356" data-name="Caminho 356" d="M406.319,108h-5.055A1.264,1.264,0,0,0,400,109.264v5.055a1.264,1.264,0,0,0,1.264,1.264h5.055a1.264,1.264,0,0,0,1.264-1.264v-5.055A1.264,1.264,0,0,0,406.319,108Zm-1.264,5.055h-2.528v-2.528h2.528Z" transform="translate(-400 -108)" fill="#aeaeae"/>
      </g>
    </g>
    <g id="Grupo_425" data-name="Grupo 425" transform="translate(63.188 30.539)">
      <g id="Grupo_424" data-name="Grupo 424">
        <path id="Caminho_357" data-name="Caminho 357" d="M406.319,172h-5.055A1.264,1.264,0,0,0,400,173.264v5.055a1.264,1.264,0,0,0,1.264,1.264h5.055a1.264,1.264,0,0,0,1.264-1.264v-5.055A1.264,1.264,0,0,0,406.319,172Zm-1.264,5.055h-2.528v-2.528h2.528Z" transform="translate(-400 -172)" fill="#aeaeae"/>
      </g>
    </g>
    <g id="Grupo_427" data-name="Grupo 427" transform="translate(63.188 40.649)">
      <g id="Grupo_426" data-name="Grupo 426">
        <path id="Caminho_358" data-name="Caminho 358" d="M406.319,236h-5.055A1.264,1.264,0,0,0,400,237.264v5.055a1.264,1.264,0,0,0,1.264,1.264h5.055a1.264,1.264,0,0,0,1.264-1.264v-5.055A1.264,1.264,0,0,0,406.319,236Zm-1.264,5.055h-2.528v-2.528h2.528Z" transform="translate(-400 -236)" fill="#aeaeae"/>
      </g>
    </g>
    <g id="Grupo_429" data-name="Grupo 429" transform="translate(63.188 50.759)">
      <g id="Grupo_428" data-name="Grupo 428">
        <path id="Caminho_359" data-name="Caminho 359" d="M406.319,300h-5.055A1.264,1.264,0,0,0,400,301.264v5.055a1.264,1.264,0,0,0,1.264,1.264h5.055a1.264,1.264,0,0,0,1.264-1.264v-5.055A1.264,1.264,0,0,0,406.319,300Zm-1.264,5.055h-2.528v-2.528h2.528Z" transform="translate(-400 -300)" fill="#aeaeae"/>
      </g>
    </g>
    <g id="Grupo_431" data-name="Grupo 431" transform="translate(63.188 60.869)">
      <g id="Grupo_430" data-name="Grupo 430">
        <path id="Caminho_360" data-name="Caminho 360" d="M406.319,364h-5.055A1.264,1.264,0,0,0,400,365.264v5.055a1.264,1.264,0,0,0,1.264,1.264h5.055a1.264,1.264,0,0,0,1.264-1.264v-5.055A1.264,1.264,0,0,0,406.319,364Zm-1.264,5.055h-2.528v-2.528h2.528Z" transform="translate(-400 -364)" fill="#aeaeae"/>
      </g>
    </g>
  </g>
</svg>
