<svg xmlns="http://www.w3.org/2000/svg" xmlns:xlink="http://www.w3.org/1999/xlink" width="155.85" height="30.14" viewBox="0 0 155.85 30.14">
  <defs>
    <linearGradient id="linear-gradient" x1="-36.783" y1="5.068" x2="-36.757" y2="5.068" gradientUnits="objectBoundingBox">
      <stop offset="0" stop-color="#5b7eb8"/>
      <stop offset="0.285" stop-color="#587bb6"/>
      <stop offset="0.376" stop-color="#5075b0"/>
      <stop offset="0.518" stop-color="#3966a1"/>
      <stop offset="0.651" stop-color="#1e538e"/>
      <stop offset="1" stop-color="#1e538e"/>
    </linearGradient>
    <linearGradient id="linear-gradient-2" x1="-35.977" y1="10.819" x2="-35.951" y2="10.819" xlink:href="#linear-gradient"/>
    <linearGradient id="linear-gradient-3" x1="-46.774" y1="8.162" x2="-46.743" y2="8.162" xlink:href="#linear-gradient"/>
    <linearGradient id="linear-gradient-4" x1="-15.803" y1="4.087" x2="-15.792" y2="4.087" xlink:href="#linear-gradient"/>
  </defs>
  <g id="Grupo_330" data-name="Grupo 330" transform="translate(0 -50)">
    <path id="Caminho_284" data-name="Caminho 284" d="M8.01.21l.27,2.22a3.571,3.571,0,0,1-1.47.91V15.56a4.107,4.107,0,0,1,1.47.88l-.27,2.22H1.76l-.27-2.22a3.374,3.374,0,0,1,1.47-.88V3.34a3.092,3.092,0,0,1-1.47-.91L1.76.21H8.01ZM18.76,5.24a4.154,4.154,0,0,1-.53-2.11,7.439,7.439,0,0,0-1.9-.24,2.474,2.474,0,0,0-1.59.49,1.7,1.7,0,0,0-.6,1.39,2.014,2.014,0,0,0,.45,1.4,3.825,3.825,0,0,0,1.79.88l2.38.7A6.751,6.751,0,0,1,21.82,9.5a4.857,4.857,0,0,1,1.14,3.49,5.246,5.246,0,0,1-1.97,4.31,7.564,7.564,0,0,1-4.88,1.58,14.19,14.19,0,0,1-3.3-.41,8.933,8.933,0,0,1-2.82-1.16v-.62a10.133,10.133,0,0,1,.19-1.55,6.36,6.36,0,0,1,.53-1.79h2.54a5.768,5.768,0,0,1,.51,2.22,5.438,5.438,0,0,0,2.18.4,3.408,3.408,0,0,0,2.05-.59,1.963,1.963,0,0,0,.8-1.68,3.852,3.852,0,0,0-.08-.84,1.588,1.588,0,0,0-.49-.72,3.024,3.024,0,0,0-1.19-.63l-2.75-.8q-4.2-1.2-4.2-5.35a4.8,4.8,0,0,1,1.76-3.89A6.947,6.947,0,0,1,16.45,0a13.064,13.064,0,0,1,5.58,1.28V1.9a10.133,10.133,0,0,1-.19,1.55,6.36,6.36,0,0,1-.53,1.79ZM31.89,18.88c-2.53,0-4.43-.73-5.68-2.19s-1.89-3.83-1.89-7.1.69-5.69,2.07-7.25A7.51,7.51,0,0,1,32.31,0q3.84,0,5.72,2.09t1.89,6.98q0,4.89-2.11,7.35A7.41,7.41,0,0,1,31.89,18.88Zm.16-15.86A3.137,3.137,0,0,0,29.3,4.41c-.64.93-.96,2.54-.96,4.84a9.534,9.534,0,0,0,1.02,5.03,3.171,3.171,0,0,0,2.79,1.58,3.138,3.138,0,0,0,2.77-1.48,9.217,9.217,0,0,0,.99-4.93c-.01-4.29-1.29-6.43-3.86-6.43Z" transform="translate(0 50)" fill="url(#linear-gradient)"/>
    <path id="Caminho_285" data-name="Caminho 285" d="M2.88,27.22a1.761,1.761,0,0,1-.82.16,2.229,2.229,0,0,1-1.46-.5A1.786,1.786,0,0,1,0,25.44a1.827,1.827,0,0,1,.58-1.45,2.339,2.339,0,0,1,1.61-.51,1.974,1.974,0,0,1,1.61.71,3.125,3.125,0,0,1,.57,2.01,4.107,4.107,0,0,1-.77,2.4,4.1,4.1,0,0,1-1.98,1.54l-.43-.78a3.1,3.1,0,0,0,1.69-2.14ZM3,26.3a.976.976,0,0,0,.01-.19,2.99,2.99,0,0,0-.22-1.36.711.711,0,0,0-.66-.4.688.688,0,0,0-.61.25,1.361,1.361,0,0,0-.18.78,1.177,1.177,0,0,0,.24.8.774.774,0,0,0,.59.28A1.524,1.524,0,0,0,3,26.3Zm4.31,3.79a1.946,1.946,0,0,1-1.74-.74,4.7,4.7,0,0,1-.5-2.51,4.466,4.466,0,0,1,.57-2.56,2.081,2.081,0,0,1,1.82-.8,1.986,1.986,0,0,1,1.75.7,4.492,4.492,0,0,1,.5,2.47,4.568,4.568,0,0,1-.58,2.6A2.045,2.045,0,0,1,7.31,30.09Zm-.66-5.23a6.927,6.927,0,0,0-.17,1.86,6.724,6.724,0,0,0,.19,1.93.719.719,0,0,0,.72.57.7.7,0,0,0,.66-.37,4.491,4.491,0,0,0,.25-1.92,7.063,7.063,0,0,0-.19-2.04.721.721,0,0,0-.74-.54A.687.687,0,0,0,6.65,24.86Zm6.06,5.23a1.946,1.946,0,0,1-1.74-.74,4.7,4.7,0,0,1-.5-2.51,4.466,4.466,0,0,1,.57-2.56,2.081,2.081,0,0,1,1.82-.8,1.986,1.986,0,0,1,1.75.7,4.492,4.492,0,0,1,.5,2.47,4.568,4.568,0,0,1-.58,2.6A2.068,2.068,0,0,1,12.71,30.09Zm-.67-5.23a6.927,6.927,0,0,0-.17,1.86,6.724,6.724,0,0,0,.19,1.93.719.719,0,0,0,.72.57.7.7,0,0,0,.66-.37,4.491,4.491,0,0,0,.25-1.92,7.063,7.063,0,0,0-.19-2.04.721.721,0,0,0-.74-.54A.687.687,0,0,0,12.04,24.86Zm3.69-.98a4.1,4.1,0,0,1,1.67-.35,4.361,4.361,0,0,1,.51.03v.01l.01-.01v5.37a1.278,1.278,0,0,1,.51.31l-.09.78H15.91l-.09-.78a1.433,1.433,0,0,1,.76-.36v-4.1a2.724,2.724,0,0,1-.84-.2v-.7Zm4.18,3.37c-.5,0-.74-.23-.74-.7s.25-.7.74-.7.74.23.74.7S20.41,27.25,19.91,27.25Zm0,2.11c-.5,0-.74-.23-.74-.7s.25-.7.74-.7.74.23.74.7S20.41,29.36,19.91,29.36Zm1.64-5.33a3.857,3.857,0,0,1,2.12-.54c1.35,0,2.02.55,2.02,1.64a1.788,1.788,0,0,1-.18.75,3.092,3.092,0,0,1-.42.69L23.73,28.2a6.129,6.129,0,0,1-.73.7l-.15.13.05.1a4.5,4.5,0,0,1,.92-.08h.74a2.118,2.118,0,0,1,.23-.8l.89.06a2.308,2.308,0,0,1,.21,1.13,2.123,2.123,0,0,1-.07.59h-4.3l-.22-1.16,2.33-2.53a2.061,2.061,0,0,0,.66-1.37.686.686,0,0,0-.17-.5.846.846,0,0,0-.6-.16,2.05,2.05,0,0,0-.74.12,2.726,2.726,0,0,1-.22.91l-.83-.05a2.423,2.423,0,0,1-.2-1.04,1.077,1.077,0,0,0,.02-.22Zm7.26,6.06a1.946,1.946,0,0,1-1.74-.74,4.7,4.7,0,0,1-.5-2.51,4.466,4.466,0,0,1,.57-2.56,2.081,2.081,0,0,1,1.82-.8,1.986,1.986,0,0,1,1.75.7,4.492,4.492,0,0,1,.5,2.47,4.568,4.568,0,0,1-.58,2.6A2.057,2.057,0,0,1,28.81,30.09Zm-.67-5.23a6.927,6.927,0,0,0-.17,1.86,6.724,6.724,0,0,0,.19,1.93.719.719,0,0,0,.72.57.7.7,0,0,0,.66-.37,4.491,4.491,0,0,0,.25-1.92,7.063,7.063,0,0,0-.19-2.04.721.721,0,0,0-.74-.54A.7.7,0,0,0,28.14,24.86Zm3.7-.98a4.1,4.1,0,0,1,1.67-.35,4.361,4.361,0,0,1,.51.03v.01l.01-.01v5.37a1.278,1.278,0,0,1,.51.31l-.09.78H32.02l-.09-.78a1.433,1.433,0,0,1,.76-.36v-4.1a2.724,2.724,0,0,1-.84-.2v-.7Zm4.67,2.06a4.113,4.113,0,0,1,.78-.06,2.012,2.012,0,0,1,1.44.49,1.915,1.915,0,0,1,.52,1.46,2.054,2.054,0,0,1-.68,1.7,2.907,2.907,0,0,1-1.9.55,3.973,3.973,0,0,1-.86-.11,2.556,2.556,0,0,1-.72-.26l.3-.81a3.132,3.132,0,0,0,1.15.21,1.453,1.453,0,0,0,.93-.25.979.979,0,0,0,.31-.81,1.128,1.128,0,0,0-.36-1,1.153,1.153,0,0,0-.67-.2,7.545,7.545,0,0,0-1.02.09l-.37-.69h-.01V23.56H38.8v1.07H36.52v1.31Z" transform="translate(0 50)" fill="url(#linear-gradient-2)"/>
    <path id="Caminho_286" data-name="Caminho 286" d="M124.42,25.12a8.518,8.518,0,0,1,.13,1.37v2.46a1.1,1.1,0,0,1,.51.35l-.09.72h-1.83l-.09-.72a1.181,1.181,0,0,1,.51-.35V24.63a1.044,1.044,0,0,1-.53-.35l.09-.72h1.93l1.86,3.63a5.677,5.677,0,0,1,.4,1.05l.07.22.1-.04a8.518,8.518,0,0,1-.13-1.37V24.63a1.171,1.171,0,0,1-.51-.36l.09-.72h1.83l.09.72a1.234,1.234,0,0,1-.51.36v5.38h-1.47l-1.88-3.66a5.538,5.538,0,0,1-.4-1.06l-.07-.22-.1.05Zm7.23-1.56.09.78a1.317,1.317,0,0,1-.51.32v4.28a1.278,1.278,0,0,1,.51.31l-.09.78h-2.19l-.09-.78a1.144,1.144,0,0,1,.51-.31V24.66a.993.993,0,0,1-.51-.32l.09-.78Zm-1.1-.62-.51-.29a3.533,3.533,0,0,1,.29-.94,2.688,2.688,0,0,1,.5-.8l.97.6a2.386,2.386,0,0,1-.5.77A3.233,3.233,0,0,1,130.55,22.94Zm3.8,7.12-1.78-5.41a1.129,1.129,0,0,1-.52-.32l.09-.78h2.19l.09.78a.992.992,0,0,1-.48.3l.8,2.77a5.833,5.833,0,0,1,.24,1.19l.01.16h.13a5.229,5.229,0,0,1,.23-1.33l.83-2.78a1,1,0,0,1-.5-.31l.09-.78h2.13l.09.78a1.3,1.3,0,0,1-.63.36l-1.76,5.37h-1.25Zm8.33-.04h-4.34l-.09-.78a1.144,1.144,0,0,1,.51-.31V24.65a.993.993,0,0,1-.51-.32l.09-.78h4.27v1.63l-.69.08a1.421,1.421,0,0,1-.35-.69h-1.46v1.61h1.3a.97.97,0,0,1,.23-.39l.59.07v1.67l-.59.07a.842.842,0,0,1-.23-.39h-1.3V29h1.53a1.35,1.35,0,0,1,.35-.69l.69.08Zm4.98,0h-4.29l-.09-.78a1.144,1.144,0,0,1,.51-.31V24.65a.993.993,0,0,1-.51-.32l.09-.78h2.19l.09.78a1.317,1.317,0,0,1-.51.32V29h1.48a1.35,1.35,0,0,1,.35-.69l.69.08v1.63Zm5.78-6.51,1.86,5.4a1.177,1.177,0,0,1,.55.33l-.09.78h-2.19l-.09-.78a.991.991,0,0,1,.45-.28l-.25-.79h-1.87l-.23.76a1.334,1.334,0,0,1,.49.31l-.09.78h-2.13l-.09-.78a1.3,1.3,0,0,1,.63-.36l1.8-5.37h1.25Zm-.78,1.31a4.822,4.822,0,0,1-.23,1.33l-.36,1.16h1.34l-.36-1.14a4.825,4.825,0,0,1-.24-1.19l-.01-.16Z" transform="translate(0 50)" fill="url(#linear-gradient-3)"/>
    <path id="Caminho_287" data-name="Caminho 287" d="M76.14,6.18q0,6.075-8.21,6.07h-1.2v3.16a4.525,4.525,0,0,1,2.43,1.04l-.27,2.22H61.67l-.27-2.22a3.374,3.374,0,0,1,1.47-.88V3.34a3.17,3.17,0,0,1-1.47-.91L61.67.21h7.09a9.966,9.966,0,0,1,5.55,1.35q1.83,1.305,1.83,4.62ZM68.33,3.13h-1.6v6.2h1.79a4.258,4.258,0,0,0,2.71-.72,3.029,3.029,0,0,0,.9-2.5,2.576,2.576,0,0,0-.98-2.38A5.426,5.426,0,0,0,68.33,3.13ZM83.95.21A19.309,19.309,0,0,1,88.54.6a5.482,5.482,0,0,1,2.05.92,4.505,4.505,0,0,1,1.36,3.61A4.579,4.579,0,0,1,90,8.58q2.49,1.26,2.49,4.68a4.607,4.607,0,0,1-1.75,3.97,9.423,9.423,0,0,1-5.23,1.43H77.89l-.27-2.22a3.374,3.374,0,0,1,1.47-.88V3.34a3.17,3.17,0,0,1-1.47-.91L77.89.21h6.06Zm.37,2.92H82.93V7.76h2.19a2.887,2.887,0,0,0,2.09-.7,2.267,2.267,0,0,0,.72-1.7,2.043,2.043,0,0,0-.51-1.51,2.158,2.158,0,0,0-1.18-.62A13.277,13.277,0,0,0,84.32,3.13Zm.99,7.54H82.93v5.08h1.85a5.722,5.722,0,0,0,2.75-.53,2.043,2.043,0,0,0,.94-1.93,2.484,2.484,0,0,0-.74-2.01A3.765,3.765,0,0,0,85.31,10.67Zm14.36,8.05a5.894,5.894,0,0,1-4.21-2.7c-.94-1.48-1.4-3.74-1.4-6.78s.69-5.34,2.07-6.9A7.474,7.474,0,0,1,102.04,0q3.84,0,5.72,2.09t1.89,7.06a11.84,11.84,0,0,1-1.58,6.55,6.728,6.728,0,0,1-4.47,2.99,6.734,6.734,0,0,0,4.47,2.25l-.27,2.43h-.24a10.533,10.533,0,0,1-5.05-1.22,5.3,5.3,0,0,1-2.84-3.43Zm2.12-15.7a3.137,3.137,0,0,0-2.75,1.39c-.64.93-.96,2.54-.96,4.84a9.534,9.534,0,0,0,1.02,5.03,3.171,3.171,0,0,0,2.79,1.58,3.138,3.138,0,0,0,2.77-1.48,9.217,9.217,0,0,0,.99-4.93q-.015-6.435-3.86-6.43Zm24.25,3.16q0,6.075-8.21,6.07h-1.2v3.16a4.525,4.525,0,0,1,2.43,1.04l-.27,2.22h-7.22l-.27-2.22a3.374,3.374,0,0,1,1.47-.88V3.34a3.17,3.17,0,0,1-1.47-.91l.27-2.22h7.09a9.966,9.966,0,0,1,5.55,1.35q1.83,1.305,1.83,4.62Zm-7.81-3.05h-1.6v6.2h1.79a4.258,4.258,0,0,0,2.71-.72,3.029,3.029,0,0,0,.9-2.5,2.576,2.576,0,0,0-.98-2.38A5.426,5.426,0,0,0,118.23,3.13Zm17.81,8.72a3.011,3.011,0,0,1-2.41.94h-6.15l-.27-1.71a3.053,3.053,0,0,1,2.41-.94h6.15l.27,1.71Zm13.27-1.64h-5.88v5.35a4.107,4.107,0,0,1,1.47.88l-.27,2.22h-6.26l-.27-2.22a3.374,3.374,0,0,1,1.47-.88V3.34a3.17,3.17,0,0,1-1.47-.91l.27-2.22h6.26l.27,2.22a3.678,3.678,0,0,1-1.47.91v4.2h5.88V3.34a3.17,3.17,0,0,1-1.47-.91l.27-2.22h6.26l.27,2.22a3.678,3.678,0,0,1-1.47.91V15.56a4.107,4.107,0,0,1,1.47.88l-.27,2.22h-6.26l-.27-2.22a3.374,3.374,0,0,1,1.47-.88Z" transform="translate(0 50)" fill="url(#linear-gradient-4)"/>
  </g>
</svg>
