<svg xmlns="http://www.w3.org/2000/svg" xmlns:xlink="http://www.w3.org/1999/xlink" width="103" height="103" viewBox="0 0 103 103">
  <defs>
    <filter id="Polígono_1" x="27" y="19" width="59" height="66" filterUnits="userSpaceOnUse">
      <feOffset dy="3" input="SourceAlpha"/>
      <feGaussianBlur stdDeviation="3" result="blur"/>
      <feFlood flood-opacity="0.4"/>
      <feComposite operator="in" in2="blur"/>
      <feComposite in="SourceGraphic"/>
    </filter>
    <filter id="Elipse_8" x="0" y="0" width="103" height="103" filterUnits="userSpaceOnUse">
      <feOffset dy="3" input="SourceAlpha"/>
      <feGaussianBlur stdDeviation="3" result="blur-2"/>
      <feFlood flood-opacity="0.42"/>
      <feComposite operator="in" in2="blur-2"/>
      <feComposite in="SourceGraphic"/>
    </filter>
  </defs>
  <g id="Grupo_244" data-name="Grupo 244" transform="translate(-859 -919)">
    <g transform="matrix(1, 0, 0, 1, 859, 919)" filter="url(#Polígono_1)">
      <path id="Polígono_1-2" data-name="Polígono 1" d="M22.274,2.949a2,2,0,0,1,3.452,0L46.238,37.99A2,2,0,0,1,44.512,41H3.488a2,2,0,0,1-1.726-3.01Z" transform="translate(77 25) rotate(90)" fill="#d60812"/>
    </g>
    <g transform="matrix(1, 0, 0, 1, 859, 919)" filter="url(#Elipse_8)">
      <g id="Elipse_8-2" data-name="Elipse 8" transform="translate(9 6)" fill="none" stroke="#fff" stroke-width="2">
        <circle cx="42.5" cy="42.5" r="42.5" stroke="none"/>
        <circle cx="42.5" cy="42.5" r="41.5" fill="none"/>
      </g>
    </g>
  </g>
</svg>
