<svg xmlns="http://www.w3.org/2000/svg" width="67.942" height="67.724" viewBox="0 0 67.942 67.724">
  <g id="sketch" transform="translate(0 -0.82)">
    <g id="Grupo_321" data-name="Grupo 321" transform="translate(47.84 48.582)">
      <g id="Grupo_320" data-name="Grupo 320">
        <path id="Caminho_264" data-name="Caminho 264" d="M372.794,360.825a1,1,0,0,0-1.087.216l-10.9,10.9a1,1,0,0,0,.705,1.7h10.9a1,1,0,0,0,1-1v-10.9A1,1,0,0,0,372.794,360.825Zm-8.872,10.822,7.493-7.493v7.493Z" transform="translate(-360.517 -360.749)" fill="#fff"/>
      </g>
    </g>
    <g id="Grupo_323" data-name="Grupo 323" transform="translate(0 0.82)">
      <g id="Grupo_322" data-name="Grupo 322">
        <path id="Caminho_265" data-name="Caminho 265" d="M67.326,32.674a1,1,0,0,0-1.087.216l-2.987,2.987V15.57a1,1,0,0,0-1-1H54.593l2.781-2.781h0l2.68-2.68a3.041,3.041,0,0,0,0-4.3l-3.1-3.1a3.041,3.041,0,0,0-4.3,0L49.975,4.392l-3.24,3.24-6.941,6.941H8.84V4.707a1,1,0,0,0-1-1A7.852,7.852,0,0,0,0,11.553V53.908a1,1,0,0,0,.024.214A7.553,7.553,0,0,0,7.554,61.1H38.027l-5.739,5.739a1,1,0,0,0,.705,1.7H66.944a1,1,0,0,0,1-1V33.6A1,1,0,0,0,67.326,32.674ZM54.067,3.121a1.047,1.047,0,0,1,1.479,0l3.1,3.1a1.047,1.047,0,0,1,0,1.48L56.67,9.676,52.091,5.1ZM50.68,6.507l4.579,4.579-1.83,1.83L48.851,8.337ZM65.947,44.8h-1.84a1,1,0,1,0,0,1.994h1.84V49.8h-1.84a1,1,0,1,0,0,1.994h1.84v3h-1.84a1,1,0,1,0,0,1.994h1.84V59.8h-1.84a1,1,0,1,0,0,1.994h1.84V66.55H35.4L45.473,56.477a1,1,0,0,0-1.41-1.41l-4.041,4.041H7.554A5.528,5.528,0,0,1,2,53.728q.009-.284.044-.563v0q.017-.132.04-.263l.005-.03q.021-.117.047-.233l.015-.064q.023-.1.049-.195c.01-.035.02-.07.03-.1.015-.051.03-.1.046-.151s.033-.1.051-.149.024-.069.037-.1c.024-.065.05-.13.077-.194l.023-.056c.034-.08.07-.158.107-.236l0-.01a5.871,5.871,0,0,1,4.08-3.191l.015,0c.083-.017.166-.031.25-.045l.042-.007c.076-.012.152-.021.229-.029l.064-.008c.074-.007.148-.012.223-.017l.071-.005q.146-.007.295-.007a1,1,0,0,0,1-1V39.832a1,1,0,1,0-1.994,0v6.3A7.789,7.789,0,0,0,2.366,48.3c-.13.127-.253.258-.372.392V11.553A5.859,5.859,0,0,1,6.846,5.789V35.843h0a1,1,0,1,0,1.994,0h0V16.567H37.8L32.288,22.08a1,1,0,0,0,1.41,1.41l7.215-7.215h0L47.44,9.747l4.578,4.579-.537.537h0L31.373,34.972l-4.579-4.579,3.963-3.963a1,1,0,0,0-1.41-1.41l-4.669,4.669a1,1,0,0,0-.07.078l-.021.028c-.014.019-.028.038-.041.057l-.021.035c-.011.019-.022.037-.031.057s-.012.025-.018.038-.017.039-.025.059l-.009.021-1.943,5.5-1.325,3.753a1.008,1.008,0,0,0-.04.152H17.82a1,1,0,1,0,0,1.994H45.437a1,1,0,1,0,0-1.994H25.623L31.7,37.323l.015-.006c.024-.009.047-.019.07-.029l.027-.013c.024-.012.047-.025.07-.039l.022-.013c.024-.015.047-.032.07-.05L32,37.16a1,1,0,0,0,.081-.072L52.6,16.567h8.659v21.3L46.993,52.136a1,1,0,0,0,0,1.41,1.018,1.018,0,0,0,.076.068,1,1,0,0,0,1.335-.068h0L65.947,36Zm-36.4-8.832-2.856,1.008-1.9-1.9L25.8,32.217Z" transform="translate(0 -0.82)" fill="#fff"/>
      </g>
    </g>
  </g>
</svg>
